Assignment1/vending_machine.vcd
$date
	Sat Jan 17 14:21:10 2026
$end
$version
	Icarus Verilog
$end
$timescale
	1ps
$end
$scope module vending_machine_tb $end
$var wire 1 ! dispense $end
$var wire 1 " change $end
$var reg 1 # clk $end
$var reg 1 $ dime $end
$var reg 1 % nickel $end
$var reg 1 & rst_n $end
$scope module dut $end
$var wire 1 # clk $end
$var wire 1 $ dime $end
$var wire 1 % nickel $end
$var wire 1 & rst_n $end
$var reg 1 " change $end
$var reg 1 ! dispense $end
$var reg 6 ' next_total [5:0] $end
$var reg 6 ( total [5:0] $end
$upscope $end
$scope task insert_coin $end
$var reg 1 ) d $end
$var reg 1 * exp_chg $end
$var reg 1 + exp_disp $end
$var reg 1 , n $end
$upscope $end
$scope task reset_dut $end
$upscope $end
$upscope $end
$enddefinitions $end
$comment Show the parameter values. $end
$dumpall
$end
#0
$dumpvars
x,
x+
x*
x)
b0 (
bx '
0&
0%
0$
0#
0"
0!
$end
#5000
1#
#10000
0#
#15000
b0 '
1#
0*
0+
1)
0,
1&
#16000
1$
#20000
0#
#25000
b1010 (
b1010 '
1#
#26000
0$
#30000
0#
#35000
1#
#36000
1$
#40000
0#
#45000
b10100 (
b10100 '
1#
#46000
1+
0$
#50000
0#
#55000
1#
#56000
1$
#60000
0#
#65000
b0 (
1!
b11110 '
1#
#66000
0$
#70000
0#
#75000
0!
b0 '
1#
#80000
0#
#85000
1#
#86000
0+
#90000
0#
#95000
1#
#96000
1$
#100000
0#
#105000
b1010 (
b1010 '
1#
#106000
0$
#110000
0#
#115000
1#
#116000
1$
#120000
0#
#125000
b10100 (
b10100 '
1#
#126000
0)
1,
0$
#130000
0#
#135000
1#
#136000
1%
#140000
0#
#145000
b11001 (
b11001 '
1#
#146000
1+
0%
#150000
0#
#155000
1#
#156000
1%
#160000
0#
#165000
b0 (
1!
b11110 '
1#
#166000
0%
#170000
0#
#175000
0!
b0 '
1#
#180000
0#
#185000
1#
#186000
0+
1)
0,
#190000
0#
#195000
1#
#196000
1$
#200000
0#
#205000
b1010 (
b1010 '
1#
#206000
0$
#210000
0#
#215000
1#
#216000
1$
#220000
0#
#225000
b10100 (
b10100 '
1#
#226000
0)
1,
0$
#230000
0#
#235000
1#
#236000
1%
#240000
0#
#245000
b11001 (
b11001 '
1#
#246000
1*
1+
1)
0,
0%
#250000
0#
#255000
1#
#256000
1$
#260000
0#
#265000
b0 (
1"
1!
b100011 '
1#
#266000
0$
#270000
0#
#275000
0"
0!
b0 '
1#
